Код	Название	Объем	Длина раны	"Упаковка, шт."	"Цена, руб"
AHV12	DERMABOND	"0,5 мл"	10-12 см	12	12944.88
APPXL6	DERMABOND	"0,75 мл"	22-25 см	6	13198.69
APP6	DERMABOND	"0,5 мл"	12-15 см	6	8481.19
AHVM12	DERMABOND	"0,36 мл"	5-7 см	12	7241.30
