Код	Название	Объем	Длина раны	Упаковка, шт.	Цена, руб
AHV12	DERMABOND	0,5 мл	10-12 см	12	11985.99
APPXL6	DERMABOND	0,75 мл	22-25 см	6	12221.01
APP6	DERMABOND	0,5 мл	12-15 см	6	7852.95
AHVM12	DERMABOND	0,36 мл	5-7 см	12	6704.91
